<?xml version="1.0" encoding="utf-8"?>
<!-- Generator: Adobe Illustrator 16.0.4, SVG Export Plug-In . SVG Version: 6.00 Build 0)  -->
<!DOCTYPE svg PUBLIC "-//W3C//DTD SVG 1.1//EN" "http://www.w3.org/Graphics/SVG/1.1/DTD/svg11.dtd">
<svg version="1.1" xmlns="http://www.w3.org/2000/svg" xmlns:xlink="http://www.w3.org/1999/xlink" x="0px" y="0px" width="71px"
	 height="52px" viewBox="0 0 71 52" enable-background="new 0 0 71 52" xml:space="preserve">
<g id="Layer_1">
	<g>
		<g>
			<circle fill="#FFFFFF" cx="4.396" cy="4.469" r="3.97"/>
			<path fill="#FFFFFF" d="M57.95,12.012c-6.933,0-12.572,5.616-12.572,12.52v14.9h7.356v-14.9c0-2.849,2.339-5.161,5.216-5.161
				c2.876,0,5.215,2.312,5.215,5.161v14.9h7.409v-14.9C70.574,17.628,64.911,12.012,57.95,12.012z"/>
			<path fill="#FFFFFF" d="M26.763,12.061c-7.709,0-13.981,6.271-13.981,13.979c0,7.71,6.272,13.983,13.981,13.983
				S40.745,33.75,40.745,26.04C40.745,18.331,34.472,12.061,26.763,12.061z M26.763,33.189c-3.942,0-7.149-3.206-7.149-7.149
				c0-3.94,3.207-7.148,7.149-7.148s7.15,3.208,7.15,7.148C33.913,29.983,30.705,33.189,26.763,33.189z"/>
			<rect x="0.591" y="12.649" fill="#FFFFFF" width="7.61" height="26.789"/>
		</g>
		<path fill="#FFFFFF" d="M2.952,45.126H0.585v-1.214H6.64v1.214H4.273v6.245H2.952V45.126z"/>
		<path fill="#FFFFFF" d="M8.619,43.912h5.531v1.172H9.93v1.939h3.741v1.172H9.93v2.004h4.273v1.172H8.619V43.912z"/>
		<path fill="#FFFFFF" d="M16.479,43.912h1.311v6.266h3.497v1.193h-4.808V43.912z"/>
		<path fill="#FFFFFF" d="M23.127,43.912h5.531v1.172h-4.222v1.939h3.741v1.172h-3.741v2.004h4.274v1.172h-5.584V43.912z"/>
		<path fill="#FFFFFF" d="M30.327,43.912h1.45l2.248,5.733l2.238-5.733h1.418l-3.102,7.513h-1.151L30.327,43.912z"/>
		<path fill="#FFFFFF" d="M39.473,43.912h1.311v7.459h-1.311V43.912z"/>
		<path fill="#FFFFFF" d="M42.784,50.284l0.789-0.937c0.714,0.617,1.428,0.97,2.355,0.97c0.81,0,1.321-0.373,1.321-0.938v-0.021
			c0-0.534-0.298-0.823-1.685-1.143c-1.588-0.383-2.482-0.852-2.482-2.228v-0.02c0-1.28,1.065-2.164,2.547-2.164
			c1.087,0,1.95,0.331,2.707,0.938l-0.704,0.99c-0.67-0.5-1.342-0.767-2.023-0.767c-0.768,0-1.216,0.395-1.216,0.885v0.021
			c0,0.574,0.342,0.831,1.77,1.172c1.577,0.383,2.397,0.948,2.397,2.186v0.021c0,1.395-1.098,2.227-2.664,2.227
			C44.756,51.479,43.68,51.085,42.784,50.284z"/>
		<path fill="#FFFFFF" d="M50.704,43.91h1.311v7.461h-1.311V43.91z"/>
		<path fill="#FFFFFF" d="M54.109,47.663v-0.022c0-2.1,1.62-3.856,3.911-3.856c2.292,0,3.891,1.736,3.891,3.835v0.021
			c0,2.102-1.62,3.859-3.912,3.859S54.109,49.762,54.109,47.663z M60.536,47.663v-0.022c0-1.448-1.056-2.653-2.537-2.653
			s-2.515,1.184-2.515,2.632v0.021c0,1.45,1.055,2.654,2.536,2.654S60.536,49.112,60.536,47.663z"/>
		<path fill="#FFFFFF" d="M64.073,43.912h1.214l3.997,5.158v-5.158h1.29v7.459h-1.098l-4.114-5.307v5.307h-1.289V43.912z"/>
	</g>
</g>
<g id="Layer_2">
</g>
</svg>
